inputconditioner.vcd
$date
	Thu Oct 20 01:50:30 2016
$end
$version
	Icarus Verilog
$end
$timescale
	1s
$end
$scope module testConditioner $end
$var wire 1 ! conditioned $end
$var wire 1 " falling $end
$var wire 1 # rising $end
$var reg 1 $ clk $end
$var reg 1 % pin $end
$scope module dut $end
$var wire 1 & clk $end
$var wire 1 ' noisysignal $end
$var reg 1 ( conditioned $end
$var reg 3 ) counter [2:0] $end
$var reg 1 * dff0 $end
$var reg 1 + dff1 $end
$var reg 1 , negativeedge $end
$var reg 1 - positiveedge $end
$var reg 1 . synchronizer0 $end
$var reg 1 / synchronizer1 $end
$upscope $end
$upscope $end
$enddefinitions $end
#0
$dumpvars
0/
0.
x-
x,
0+
0*
b0 )
x(
0'
0&
0%
0$
x#
x"
x!
$end
#10
b1 )
0,
0"
0-
0#
1$
1&
#20
0$
0&
#30
b10 )
1$
1&
#40
0$
0&
#50
b11 )
1$
1&
#60
0$
0&
#70
1,
1"
0(
0!
b0 )
1$
1&
#80
0$
0&
#90
0,
0"
1$
1&
#100
0$
0&
#107
1%
1'
#110
1.
1$
1&
#120
0$
0&
#127
0%
0'
#130
1/
0.
1$
1&
#140
0$
0&
#147
1%
1'
#150
0/
1.
b1 )
1$
1&
#160
0$
0&
#167
0%
0'
#170
1/
0.
b0 )
1$
1&
#180
0$
0&
#190
0/
b1 )
1$
1&
#200
0$
0&
#210
b0 )
1$
1&
#220
0$
0&
#230
1$
1&
#240
0$
0&
#250
1$
1&
#260
0$
0&
#270
1$
1&
#274
1%
1'
#276
0%
0'
#278
1%
1'
#280
0%
0'
0$
0&
#282
1%
1'
#284
0%
0'
#286
1%
1'
#288
0%
0'
#290
1$
1&
#300
0$
0&
#310
1$
1&
#320
0$
0&
#330
1$
1&
#340
0$
0&
#350
1$
1&
#360
0$
0&
#370
1$
1&
#380
0$
0&
#390
1$
1&
#400
0$
0&
#410
1$
1&
#420
0$
0&
#430
1$
1&
#438
1%
1'
#440
0$
0&
#450
1.
1$
1&
#460
0$
0&
#470
1/
1$
1&
#480
0$
0&
#490
b1 )
1$
1&
#500
0$
0&
#510
b10 )
1$
1&
#520
0$
0&
#530
b11 )
1$
1&
#538
0%
0'
#540
0$
0&
#550
0.
1-
1#
1(
1!
b0 )
1$
1&
#560
0$
0&
#570
0/
0-
0#
1$
1&
#580
0$
0&
#590
b1 )
1$
1&
#600
0$
0&
#610
b10 )
1$
1&
#620
0$
0&
#630
b11 )
1$
1&
#640
0$
0&
#650
1,
1"
0(
0!
b0 )
1$
1&
#660
0$
0&
#670
0,
0"
1$
1&
#680
0$
0&
#688
1%
1'
#690
1.
1$
1&
#700
0$
0&
#710
1/
1$
1&
#720
0$
0&
#730
b1 )
1$
1&
#740
0$
0&
#750
b10 )
1$
1&
#760
0$
0&
#770
b11 )
1$
1&
#780
0$
0&
#790
1-
1#
1(
1!
b0 )
1$
1&
#800
0$
0&
#810
0-
0#
1$
1&
#820
0$
0&
#830
1$
1&
#840
0$
0&
#850
1$
1&
#860
0$
0&
#870
1$
1&
#880
0$
0&
#888
0%
0'
#890
0.
1$
1&
#900
0$
0&
#910
0/
1$
1&
#920
0$
0&
#930
b1 )
1$
1&
#940
0$
0&
#950
b10 )
1$
1&
#960
0$
0&
#970
b11 )
1$
1&
